\relax 
\providecommand\hyper@newdestlabel[2]{}
\catcode `"\active 
\providecommand\HyperFirstAtBeginDocument{\AtBeginDocument}
\HyperFirstAtBeginDocument{\ifx\hyper@anchor\@undefined
\global\let\oldcontentsline\contentsline
\gdef\contentsline#1#2#3#4{\oldcontentsline{#1}{#2}{#3}}
\global\let\oldnewlabel\newlabel
\gdef\newlabel#1#2{\newlabelxx{#1}#2}
\gdef\newlabelxx#1#2#3#4#5#6{\oldnewlabel{#1}{{#2}{#3}}}
\AtEndDocument{\ifx\hyper@anchor\@undefined
\let\contentsline\oldcontentsline
\let\newlabel\oldnewlabel
\fi}
\fi}
\global\let\hyper@last\relax 
\gdef\HyperFirstAtBeginDocument#1{#1}
\providecommand\HyField@AuxAddToFields[1]{}
\providecommand\HyField@AuxAddToCoFields[2]{}
\abx@aux@sortscheme{none}
\abx@aux@refcontext{none/global/}
\@writefile{toc}{\boolfalse {citerequest}\boolfalse {citetracker}\boolfalse {pagetracker}\boolfalse {backtracker}\relax }
\@writefile{lof}{\boolfalse {citerequest}\boolfalse {citetracker}\boolfalse {pagetracker}\boolfalse {backtracker}\relax }
\@writefile{lot}{\boolfalse {citerequest}\boolfalse {citetracker}\boolfalse {pagetracker}\boolfalse {backtracker}\relax }
\select@language{portuguese}
\@writefile{toc}{\defcounter {refsection}{0}\relax }\@writefile{toc}{\select@language{portuguese}}
\@writefile{lof}{\defcounter {refsection}{0}\relax }\@writefile{lof}{\select@language{portuguese}}
\@writefile{lot}{\defcounter {refsection}{0}\relax }\@writefile{lot}{\select@language{portuguese}}
\@writefile{toc}{\defcounter {refsection}{0}\relax }\@writefile{toc}{\contentsline {chapter}{\numberline {1}Introdu\IeC {\c c}\IeC {\~a}o}{1}{chapter.1}}
\@writefile{lof}{\defcounter {refsection}{0}\relax }\@writefile{lof}{\addvspace {10\p@ }}
\@writefile{lot}{\defcounter {refsection}{0}\relax }\@writefile{lot}{\addvspace {10\p@ }}
\newlabel{chp_1_introduction}{{1}{1}{Introdução}{chapter.1}{}}
\@writefile{toc}{\defcounter {refsection}{0}\relax }\@writefile{toc}{\contentsline {chapter}{\numberline {2}Processamento de Linguagem Natural}{2}{chapter.2}}
\@writefile{lof}{\defcounter {refsection}{0}\relax }\@writefile{lof}{\addvspace {10\p@ }}
\@writefile{lot}{\defcounter {refsection}{0}\relax }\@writefile{lot}{\addvspace {10\p@ }}
\@writefile{toc}{\defcounter {refsection}{0}\relax }\@writefile{toc}{\contentsline {section}{\numberline {2.1}Povoamento do Corpora}{2}{section.2.1}}
\newlabel{chp_2_sec_1_populate}{{2.1}{2}{Povoamento do Corpora}{section.2.1}{}}
\@writefile{lof}{\defcounter {refsection}{0}\relax }\@writefile{lof}{\contentsline {figure}{\numberline {2.1}{\ignorespaces Exemplo de uma entrada do ficheiro XML correspondente ao corpora.\relax }}{3}{figure.caption.4}}
\providecommand*\caption@xref[2]{\@setref\relax\@undefined{#1}}
\newlabel{fig:chp_2_fig_exerto_do_corpora}{{2.1}{3}{Exemplo de uma entrada do ficheiro XML correspondente ao corpora.\relax }{figure.caption.4}{}}
\@writefile{toc}{\defcounter {refsection}{0}\relax }\@writefile{toc}{\contentsline {section}{\numberline {2.2}An\IeC {\'a}lise do corpora}{4}{section.2.2}}
\newlabel{chp_2_sec_1_analyze}{{2.2}{4}{Análise do corpora}{section.2.2}{}}
\@writefile{toc}{\defcounter {refsection}{0}\relax }\@writefile{toc}{\contentsline {subsection}{\numberline {2.2.1}M\IeC {\'o}dulo de Capitaliza\IeC {\c c}\IeC {\~a}o Preferencial}{4}{subsection.2.2.1}}
\newlabel{chp2_sec_1_subsec_1_pref_cap}{{2.2.1}{4}{Módulo de Capitalização Preferencial}{subsection.2.2.1}{}}
\@writefile{toc}{\defcounter {refsection}{0}\relax }\@writefile{toc}{\contentsline {subsubsection}{Sub-rotina \emph  {new}}{4}{subsection.2.2.1}}
\@writefile{toc}{\defcounter {refsection}{0}\relax }\@writefile{toc}{\contentsline {subsubsection}{Sub-rotina \emph  {process}}{5}{subsection.2.2.1}}
\@writefile{toc}{\defcounter {refsection}{0}\relax }\@writefile{toc}{\contentsline {subsubsection}{Sub-rotina \emph  {preference}}{5}{subsection.2.2.1}}
\@writefile{toc}{\defcounter {refsection}{0}\relax }\@writefile{toc}{\contentsline {subsubsection}{Sub-rotina \emph  {replaceNonGreedy}}{6}{subsection.2.2.1}}
\@writefile{toc}{\defcounter {refsection}{0}\relax }\@writefile{toc}{\contentsline {subsubsection}{Sub-rotina \emph  {replaceGreedy}}{6}{subsection.2.2.1}}
\@writefile{toc}{\defcounter {refsection}{0}\relax }\@writefile{toc}{\contentsline {subsubsection}{Sub-rotina \emph  {asTxt}}{6}{subsection.2.2.1}}
\@writefile{toc}{\defcounter {refsection}{0}\relax }\@writefile{toc}{\contentsline {subsection}{\numberline {2.2.2}M\IeC {\'o}dulo de Estat\IeC {\'\i }sticas}{6}{subsection.2.2.2}}
\newlabel{chp2_sec_1_subsec_2_stats}{{2.2.2}{6}{Módulo de Estatísticas}{subsection.2.2.2}{}}
\@writefile{toc}{\defcounter {refsection}{0}\relax }\@writefile{toc}{\contentsline {subsubsection}{Sub-rotina \emph  {new}}{7}{subsection.2.2.2}}
\@writefile{toc}{\defcounter {refsection}{0}\relax }\@writefile{toc}{\contentsline {subsubsection}{Sub-rotina \emph  {add}}{7}{subsection.2.2.2}}
\@writefile{toc}{\defcounter {refsection}{0}\relax }\@writefile{toc}{\contentsline {subsubsection}{Sub-rotina \emph  {info}}{7}{subsection.2.2.2}}
\@writefile{toc}{\defcounter {refsection}{0}\relax }\@writefile{toc}{\contentsline {subsubsection}{Sub-rotina \emph  {absoluteFrequency}}{7}{subsection.2.2.2}}
\@writefile{toc}{\defcounter {refsection}{0}\relax }\@writefile{toc}{\contentsline {subsubsection}{Sub-rotina \emph  {relativeFrequency}}{8}{subsection.2.2.2}}
\@writefile{toc}{\defcounter {refsection}{0}\relax }\@writefile{toc}{\contentsline {subsubsection}{Sub-rotina \emph  {absoluteFrequencies}}{8}{subsection.2.2.2}}
\@writefile{toc}{\defcounter {refsection}{0}\relax }\@writefile{toc}{\contentsline {subsubsection}{Sub-rotina \emph  {relativeFrequencies}}{8}{subsection.2.2.2}}
\@writefile{toc}{\defcounter {refsection}{0}\relax }\@writefile{toc}{\contentsline {subsubsection}{Sub-rotina \emph  {frequencies}}{8}{subsection.2.2.2}}
\@writefile{toc}{\defcounter {refsection}{0}\relax }\@writefile{toc}{\contentsline {subsubsection}{Sub-rotina \emph  {sum}}{8}{subsection.2.2.2}}
\@writefile{toc}{\defcounter {refsection}{0}\relax }\@writefile{toc}{\contentsline {subsubsection}{Sub-rotina \emph  {subtract}}{8}{subsection.2.2.2}}
\@writefile{toc}{\defcounter {refsection}{0}\relax }\@writefile{toc}{\contentsline {subsubsection}{Sub-rotina \emph  {surprise}}{8}{subsection.2.2.2}}
\@writefile{toc}{\defcounter {refsection}{0}\relax }\@writefile{toc}{\contentsline {subsubsection}{Sub-rotina \emph  {threshold}}{9}{subsection.2.2.2}}
\@writefile{toc}{\defcounter {refsection}{0}\relax }\@writefile{toc}{\contentsline {subsubsection}{Sub-rotina \emph  {top}}{9}{subsection.2.2.2}}
\@writefile{toc}{\defcounter {refsection}{0}\relax }\@writefile{toc}{\contentsline {subsubsection}{Sub-rotina \emph  {bottom}}{9}{subsection.2.2.2}}
\@writefile{toc}{\defcounter {refsection}{0}\relax }\@writefile{toc}{\contentsline {subsubsection}{Sub-rotina \emph  {cleanData}}{9}{subsection.2.2.2}}
\@writefile{toc}{\defcounter {refsection}{0}\relax }\@writefile{toc}{\contentsline {subsubsection}{Sub-rotina \emph  {saveAsHtml}}{9}{subsection.2.2.2}}
\@writefile{toc}{\defcounter {refsection}{0}\relax }\@writefile{toc}{\contentsline {subsection}{\numberline {2.2.3}M\IeC {\'o}dulo de An\IeC {\'a}lise}{10}{subsection.2.2.3}}
\newlabel{chp2_sec_1_subsec_2_analyze}{{2.2.3}{10}{Módulo de Análise}{subsection.2.2.3}{}}
\@writefile{toc}{\defcounter {refsection}{0}\relax }\@writefile{toc}{\contentsline {subsubsection}{Sub-rotina \emph  {new}}{10}{subsection.2.2.3}}
\@writefile{toc}{\defcounter {refsection}{0}\relax }\@writefile{toc}{\contentsline {subsubsection}{Sub-rotina \emph  {words}}{10}{subsection.2.2.3}}
\@writefile{toc}{\defcounter {refsection}{0}\relax }\@writefile{toc}{\contentsline {subsubsection}{Sub-rotina \emph  {findEntities}}{11}{subsection.2.2.3}}
\@writefile{toc}{\defcounter {refsection}{0}\relax }\@writefile{toc}{\contentsline {subsubsection}{Sub-rotina \emph  {findAcronyms}}{11}{subsection.2.2.3}}
\@writefile{toc}{\defcounter {refsection}{0}\relax }\@writefile{toc}{\contentsline {subsubsection}{Sub-rotina \emph  {classifier}}{12}{subsection.2.2.3}}
\@writefile{toc}{\defcounter {refsection}{0}\relax }\@writefile{toc}{\contentsline {section}{\numberline {2.3}Discuss\IeC {\~a}o dos Resultados}{13}{section.2.3}}
\@writefile{lof}{\defcounter {refsection}{0}\relax }\@writefile{lof}{\contentsline {figure}{\numberline {2.2}{\ignorespaces Top 10 das palavras mais frequentes no corpora analisado.\relax }}{13}{figure.caption.5}}
\newlabel{fig:chp_2_fig_top_10}{{2.2}{13}{Top 10 das palavras mais frequentes no corpora analisado.\relax }{figure.caption.5}{}}
\@writefile{lot}{\defcounter {refsection}{0}\relax }\@writefile{lot}{\contentsline {table}{\numberline {2.1}{\ignorespaces Compara\IeC {\c c}\IeC {\~a}o entre o m\IeC {\'e}todo de substitui\IeC {\c c}\IeC {\~a}o moderada e agressiva na identifica\IeC {\c c}\IeC {\~a}o das entidades.\relax }}{14}{table.caption.6}}
\newlabel{table:chp_2_tab_greedy_non_greedy_comparison_entities}{{2.1}{14}{Comparação entre o método de substituição moderada e agressiva na identificação das entidades.\relax }{table.caption.6}{}}
\@writefile{lot}{\defcounter {refsection}{0}\relax }\@writefile{lot}{\contentsline {table}{\numberline {2.2}{\ignorespaces Compara\IeC {\c c}\IeC {\~a}o entre o m\IeC {\'e}todo de substitui\IeC {\c c}\IeC {\~a}o moderada e agressiva na identifica\IeC {\c c}\IeC {\~a}o dos acr\IeC {\'o}nimos.\relax }}{14}{table.caption.7}}
\newlabel{table:chp_2_tab_greedy_non_greedy_comparison_acronyms}{{2.2}{14}{Comparação entre o método de substituição moderada e agressiva na identificação dos acrónimos.\relax }{table.caption.7}{}}
\@writefile{lot}{\defcounter {refsection}{0}\relax }\@writefile{lot}{\contentsline {table}{\numberline {2.3}{\ignorespaces Estat\IeC {\'\i }sticas sobre os identificadores candidatos de acordo com os diferentes temas.\relax }}{15}{table.caption.8}}
\newlabel{table:chp_2_tab_classifier_stats}{{2.3}{15}{Estatísticas sobre os identificadores candidatos de acordo com os diferentes temas.\relax }{table.caption.8}{}}
\@writefile{lot}{\defcounter {refsection}{0}\relax }\@writefile{lot}{\contentsline {table}{\numberline {2.4}{\ignorespaces Top 5 das palavras mais frequentes para o tema desporto.\relax }}{15}{table.caption.9}}
\newlabel{table:chp_2_top_5_sports}{{2.4}{15}{Top 5 das palavras mais frequentes para o tema desporto.\relax }{table.caption.9}{}}
\@writefile{lot}{\defcounter {refsection}{0}\relax }\@writefile{lot}{\contentsline {table}{\numberline {2.5}{\ignorespaces Top 5 das palavras mais frequentes para o tema pol\IeC {\'\i }tica.\relax }}{16}{table.caption.10}}
\newlabel{table:chp_2_top_5_politics}{{2.5}{16}{Top 5 das palavras mais frequentes para o tema política.\relax }{table.caption.10}{}}
\@writefile{lot}{\defcounter {refsection}{0}\relax }\@writefile{lot}{\contentsline {table}{\numberline {2.6}{\ignorespaces Top 5 das palavras mais frequentes para o tema lusofonia.\relax }}{16}{table.caption.11}}
\newlabel{table:chp_2_top_5_luso}{{2.6}{16}{Top 5 das palavras mais frequentes para o tema lusofonia.\relax }{table.caption.11}{}}
\@writefile{toc}{\defcounter {refsection}{0}\relax }\@writefile{toc}{\contentsline {chapter}{\numberline {3}Conclus\IeC {\~o}es}{17}{chapter.3}}
\@writefile{lof}{\defcounter {refsection}{0}\relax }\@writefile{lof}{\addvspace {10\p@ }}
\@writefile{lot}{\defcounter {refsection}{0}\relax }\@writefile{lot}{\addvspace {10\p@ }}
\newlabel{conclusions}{{3}{17}{Conclusões}{chapter.3}{}}
